<?xml version="1.0" encoding="UTF-8" standalone="no"?>
<svg
   xmlns:dc="http://purl.org/dc/elements/1.1/"
   xmlns:cc="http://creativecommons.org/ns#"
   xmlns:rdf="http://www.w3.org/1999/02/22-rdf-syntax-ns#"
   xmlns:svg="http://www.w3.org/2000/svg"
   xmlns="http://www.w3.org/2000/svg"
   xmlns:sodipodi="http://sodipodi.sourceforge.net/DTD/sodipodi-0.dtd"
   xmlns:inkscape="http://www.inkscape.org/namespaces/inkscape"
   inkscape:version="1.0beta0 (1b5d333, 2019-09-08)"
   sodipodi:docname="align-vertical-node-symbolic.svg"
   viewBox="0 0 16 16"
   height="16"
   width="16"
   id="svg1"
   version="1.1">
<style id="s0">
   .base    { fill: #000000; }
   .success { fill: #009909; }
   .warning { fill: #FF1990; }
   .error   { fill: #00AAFF; }
   .dark    {  }
  </style>
  <style id="s2"> 
     @import '../../highlights.css'; 
  </style>
     
<metadata
     id="metadata1217">
    <rdf:RDF>
      <cc:Work
         rdf:about="">
        <dc:format>image/svg+xml</dc:format>
        <dc:type
           rdf:resource="http://purl.org/dc/dcmitype/StillImage" />
      </cc:Work>
    </rdf:RDF>
  </metadata>
  <defs
     id="defs1215">
    <inkscape:path-effect
       attempt_force_join="true"
       miter_limit="100"
       linejoin_type="extrp_arc"
       line_width="2"
       linecap_type="butt"
       is_visible="true"
       id="path-effect3466"
       effect="join_type" />
  </defs>
  <sodipodi:namedview
     inkscape:snap-global="false"
     inkscape:current-layer="g19671"
     inkscape:window-maximized="1"
     inkscape:window-y="-8"
     inkscape:window-x="54"
     inkscape:window-height="1177"
     inkscape:window-width="1858"
     inkscape:cy="8.6389925"
     inkscape:cx="6.7882372"
     inkscape:zoom="44.636116"
     showgrid="true"
     id="namedview"
     guidetolerance="10"
     gridtolerance="10"
     objecttolerance="10">
    <inkscape:grid
       id="grid"
       type="xygrid" />
  </sodipodi:namedview>
  <g
     id="align-vertical-node"
     inkscape:label="00295"
     transform="matrix(0.66653,0,0,0.666667,-721.18547,-574.24133)">
    <g
       transform="matrix(0,-1,-1,0,1967.362,1929.362)"
       id="g19671"
       inkscape:label="#node_valign">
      <path
         style="display:inline;opacity:0;fill:none"
         d="m 1044,861.36218 h 24 v 24 h -24 z"
         id="rect19683"
         inkscape:connector-curvature="0" />
      <g
         id="align-horizontal-node"
         inkscape:label="00294"
         transform="matrix(0.99999996,0,0,-1,0.0648894,1746.7207)">
        <path
           style="opacity:1"
           d="m 1053,862.36218 h 5 v 4.99999 h -5 z"
           id="rect5251"
           inkscape:connector-curvature="0" />
        <path
           style="opacity:1"
           d="m 1053,870.86218 h 5 v 4.99999 h -5 z"
           id="rect19638"
           inkscape:connector-curvature="0" />
        <path
           style="opacity:1"
           d="m 1053,879.36218 h 5 v 4.99999 h -5 z"
           id="rect19640"
           inkscape:connector-curvature="0" />
        <path
           style="opacity:0;fill:none"
           d="m 1044,861.36218 h 24 v 24 h -24 z"
           id="rect19636"
           inkscape:connector-curvature="0" />
        <path
           style="opacity:0.5"
           inkscape:original-d="m 965.30165,220.84943 c 0,2.91013 4.86186,3.75284 9.47933,3.84458 13.1029,0.26032 12.88886,9.97437 0.41215,10.08147 -11.84271,0.10166 -11.62862,9.53678 -0.12958,9.72385 3.49007,0.0568 11.08323,-0.1492 11.08323,4.14366"
           inkscape:path-effect="#path-effect3466"
           d="m 964.30165,220.84943 c 0,3.88469 5.74779,4.75077 10.45947,4.84438 11.78109,0.23406 11.5122,7.98652 0.42343,8.08171 -13.15821,0.11295 -12.98997,11.51459 -0.13727,11.72368 3.54906,0.0578 10.0995,-0.0436 10.0995,3.14379 h 2 c 0,-5.39835 -8.63588,-5.08769 -12.06696,-5.14353 -10.13577,-0.16489 -10.39598,-7.63373 0.12189,-7.72402 13.853,-0.11891 14.01274,-11.79487 -0.40087,-12.08123 -4.5199,-0.0898 -8.49919,-0.94401 -8.49919,-2.84478 z"
           id="path2265"
           inkscape:connector-curvature="0"
           transform="matrix(0.86350874,0,0,0.86368623,213.4531,670.61281)"
           sodipodi:nodetypes="csssc" />
        <path
           class="success"
           sodipodi:nodetypes="ccccc"
           style="opacity:1;fill-opacity:1;"
           d="m 1054.7678,861.35742 v 24.00492 h 1.5 v -24.00492 z"
           id="path5262"
           inkscape:connector-curvature="0" />
      </g>
    </g>
  </g>
</svg>
