<?xml version="1.0" encoding="UTF-8" standalone="no"?>
<svg
   xmlns:dc="http://purl.org/dc/elements/1.1/"
   xmlns:cc="http://creativecommons.org/ns#"
   xmlns:rdf="http://www.w3.org/1999/02/22-rdf-syntax-ns#"
   xmlns:svg="http://www.w3.org/2000/svg"
   xmlns="http://www.w3.org/2000/svg"
   xmlns:sodipodi="http://sodipodi.sourceforge.net/DTD/sodipodi-0.dtd"
   xmlns:inkscape="http://www.inkscape.org/namespaces/inkscape"
   inkscape:version="1.1-dev (6039630, 2019-12-20)"
   sodipodi:docname="dialog-geometry-symbolic.svg"
   viewBox="0 0 16 16"
   height="16"
   width="16"
   id="svg1"
   version="1.1">
  <metadata
     id="metadata8931">
    <rdf:RDF>
      <cc:Work
         rdf:about="">
        <dc:format>image/svg+xml</dc:format>
        <dc:type
           rdf:resource="http://purl.org/dc/dcmitype/StillImage" />
      </cc:Work>
    </rdf:RDF>
  </metadata>
  <defs
     id="defs8929" />
  <style
     id="s0">.base { fill:#000000; }
.success { fill:#009909; }
.warning { fill:#FF1990; }
.error { fill:#00AAFF; }
.dark {  }
</style>
  <style
     id="s2">
@import '../../highlights.css';
</style>
  <sodipodi:namedview
     inkscape:current-layer="dialog-geometry"
     inkscape:window-maximized="1"
     inkscape:window-y="-6"
     inkscape:window-x="65"
     inkscape:window-height="890"
     inkscape:window-width="1296"
     inkscape:cy="8"
     inkscape:cx="8"
     inkscape:zoom="41.125"
     showgrid="true"
     id="namedview"
     guidetolerance="10"
     gridtolerance="10"
     objecttolerance="10">
    <inkscape:grid
       id="grid"
       type="xygrid" />
  </sodipodi:namedview>
  <g
     inkscape:label="00230"
     id="dialog-geometry"
     transform="matrix(1,0,0,0.999999,-769,-589.36144)">
    <path
       style="opacity:0;fill:none"
       d="m 769,589.36218 h 16 v 16 h -16 z"
       id="rect14874"
       inkscape:connector-curvature="0" />
    <path
       style="opacity:1"
       d="m 769.5,589.36218 c 0.277,0 0.5,0.3345 0.5,0.75 v 14.5 c 0,0.4155 -0.223,0.75 -0.5,0.75 -0.277,0 -0.5,-0.3345 -0.5,-0.75 v -14.5 c 0,-0.4155 0.223,-0.75 0.5,-0.75 z"
       id="rect14903"
       inkscape:connector-curvature="0" />
    <path
       style="opacity:1"
       d="m 784.5,589.36218 c 0.277,0 0.5,0.3345 0.5,0.75 v 14.5 c 0,0.4155 -0.223,0.75 -0.5,0.75 -0.277,0 -0.5,-0.3345 -0.5,-0.75 v -14.5 c 0,-0.4155 0.223,-0.75 0.5,-0.75 z"
       id="rect14905"
       inkscape:connector-curvature="0" />
    <path
       transform="translate(0,512.3622)"
       style="opacity:1"
       d="m 770,77 h 14 c 0.554,0 1,0.223 1,0.5 0,0.277 -0.446,0.5 -1,0.5 h -14 c -0.554,0 -1,-0.223 -1,-0.5 0,-0.277 0.446,-0.5 1,-0.5 z"
       id="rect14907"
       inkscape:connector-curvature="0" />
    <path
       transform="translate(0,512.3622)"
       style="opacity:1"
       d="m 769,92 h 16 v 1 h -16 z"
       id="rect14909"
       inkscape:connector-curvature="0" />
    <path
       class="success"
       style="opacity:1"
       d="m 771.6,591.36218 h 10.8 c 0.3324,0 0.6,0.223 0.6,0.5 0,0.277 -0.2676,0.5 -0.6,0.5 h -10.8 c -0.3324,0 -0.6,-0.223 -0.6,-0.5 0,-0.277 0.2676,-0.5 0.6,-0.5 z"
       id="rect14911"
       inkscape:connector-curvature="0" />
    <path
       style="opacity:1"
       d="m 772.62308,600.41931 h 8.75384 c 0.34519,0 0.62308,0.223 0.62308,0.5 v 0.0439 c 0,0.277 -0.27789,0.5 -0.62308,0.5 h -8.75384 c -0.34519,0 -0.62308,-0.223 -0.62308,-0.5 v -0.0439 c 0,-0.277 0.27789,-0.5 0.62308,-0.5 z"
       id="rect14919"
       inkscape:connector-curvature="0" />
    <path
       inkscape:connector-curvature="0"
       style="opacity:1"
       d="m 781,597.3622 -2.0019,-1 -0.9981,1 h 1 l 1,1 v 3 1 l -0.071,2.1054 1.0714,-2.1054 0.059,-1.494 z"
       id="path14921" />
    <path
       id="path14959"
       d="m 773.0585,597.3622 1.9492,-1.0528 0.9923,1.0528 h -0.9415 l -1,1 -0.058,3 v 2 1 l -1,-2 v -1.494 z"
       style="opacity:1"
       inkscape:connector-curvature="0" />
    <path
       style="opacity:1"
       d="m 777,599.36218 c 0.554,0 1,0.446 1,1 v 1 c 0,0.554 -0.446,1 -1,1 -0.554,0 -1,-0.446 -1,-1 v -1 c 0,-0.554 0.446,-1 1,-1 z"
       id="rect14964"
       inkscape:connector-curvature="0" />
    <path
       inkscape:connector-curvature="0"
       id="path14966"
       d="m 777.0625,594.1122 c -1.2793,0 -2.3125,1.0044 -2.3125,2.25 0,1.2456 1.0332,2.25 2.3125,2.25 1.2793,0 2.3125,-1.0044 2.3125,-2.25 0,-1.2456 -1.0332,-2.25 -2.3125,-2.25 z m -0.062,1.25 c 0.5523,0 1,0.4477 1,1 0,0.5523 -0.4477,1 -1,1 -0.5523,0 -1,-0.4477 -1,-1 0,-0.5523 0.4477,-1 1,-1 z"
       style="opacity:1" />
    <path
       style="opacity:1"
       d="m 777,593.36218 c 0.554,0 1,0.446 1,1 0,0.554 -0.446,1 -1,1 -0.554,0 -1,-0.446 -1,-1 0,-0.554 0.446,-1 1,-1 z"
       id="rect14971"
       inkscape:connector-curvature="0" />
  </g>
</svg>
