<?xml version="1.0" encoding="UTF-8" standalone="no"?>
<svg
   xmlns:dc="http://purl.org/dc/elements/1.1/"
   xmlns:cc="http://creativecommons.org/ns#"
   xmlns:rdf="http://www.w3.org/1999/02/22-rdf-syntax-ns#"
   xmlns:svg="http://www.w3.org/2000/svg"
   xmlns="http://www.w3.org/2000/svg"
   xmlns:sodipodi="http://sodipodi.sourceforge.net/DTD/sodipodi-0.dtd"
   xmlns:inkscape="http://www.inkscape.org/namespaces/inkscape"
   inkscape:version="1.1-dev (6039630, 2019-12-20)"
   sodipodi:docname="edit-symbolic.svg"
   id="svg9490"
   version="1.1"
   height="16"
   width="16">
  <metadata
     id="metadata9496">
    <rdf:RDF>
      <cc:Work
         rdf:about="">
        <dc:format>image/svg+xml</dc:format>
        <dc:type
           rdf:resource="http://purl.org/dc/dcmitype/StillImage" />
      </cc:Work>
    </rdf:RDF>
  </metadata>
  <defs
     id="defs9494" />
  <sodipodi:namedview
     inkscape:current-layer="svg9490"
     inkscape:window-maximized="1"
     inkscape:window-y="-6"
     inkscape:window-x="65"
     inkscape:cy="8"
     inkscape:cx="8"
     inkscape:zoom="14.75"
     showgrid="false"
     id="namedview9492"
     inkscape:window-height="890"
     inkscape:window-width="1296"
     inkscape:pageshadow="2"
     inkscape:pageopacity="0"
     guidetolerance="10"
     gridtolerance="10"
     objecttolerance="10"
     borderopacity="1"
     bordercolor="#666666"
     pagecolor="#ffffff" />
  <style
     id="s0">.base { fill:#000000; }
.success { fill:#009909; }
.warning { fill:#FF1990; }
.error { fill:#00AAFF; }
.dark {  }
</style>
  <style
     id="s2">
@import '../../highlights.css';
</style>
  <path
     id="path9485"
     d="M2.679 10.293l5.849-5.851 3 3-5.83 5.873-4.026 1.072z" />
  <path
     style=""
     class="success"
     id="path9487"
     d="M11.637 1.676c-.2 0-.4.077-.554.23l-1.77 1.768 3.053 3.053 1.77-1.77a.783.783 0 0 0 0-1.109l-1.944-1.941a.782.782 0 0 0-.555-.23z" />
</svg>
