<?xml version="1.0" encoding="UTF-8" standalone="no"?>
<svg
   xmlns:dc="http://purl.org/dc/elements/1.1/"
   xmlns:cc="http://creativecommons.org/ns#"
   xmlns:rdf="http://www.w3.org/1999/02/22-rdf-syntax-ns#"
   xmlns:svg="http://www.w3.org/2000/svg"
   xmlns="http://www.w3.org/2000/svg"
   xmlns:sodipodi="http://sodipodi.sourceforge.net/DTD/sodipodi-0.dtd"
   xmlns:inkscape="http://www.inkscape.org/namespaces/inkscape"
   version="1.1"
   id="svg1"
   width="16"
   height="16"
   viewBox="0 0 16 16"
   sodipodi:docname="embrodery-stitch-symbolic.svg"
   inkscape:version="1.1-dev (1fceb22ce1, 2019-12-30, custom)">
  <style
     id="s0">.base { fill:#000000; }
.success { fill:#009909; }
.warning { fill:#FF1990; }
.error { fill:#00AAFF; }
.dark {  }
</style>
  <style
     id="s2">
@import '../../highlights.css';
</style>
  <defs
     id="defs905">
    <inkscape:path-effect
       effect="interpolate"
       id="path-effect1488"
       is_visible="true"
       trajectory="M -3.0791684,5.1075601 7.208942,7.6605052"
       equidistant_spacing="true"
       steps="24" />
    <inkscape:path-effect
       effect="interpolate"
       id="path-effect1486"
       is_visible="true"
       trajectory="M -3.0791684,5.1075601 22.208942,13.660505"
       equidistant_spacing="true"
       steps="9"
       trajectory-nodetypes="cc" />
    <inkscape:path-effect
       effect="interpolate"
       id="path-effect1484"
       is_visible="true"
       trajectory="m -3.791058,3.6605055 c 9,-3 22,-7 30,0"
       equidistant_spacing="true"
       steps="15"
       trajectory-nodetypes="cc" />
    <inkscape:path-effect
       effect="interpolate"
       id="path-effect1481"
       is_visible="true"
       trajectory="M -10,40 C -20.008139,3.89122 8.5618918,-33.290908 20,-12"
       equidistant_spacing="true"
       steps="12"
       trajectory-nodetypes="cc" />
  </defs>
  <sodipodi:namedview
     objecttolerance="10"
     gridtolerance="10"
     guidetolerance="10"
     id="namedview"
     showgrid="true"
     inkscape:zoom="38.41879"
     inkscape:cx="11.339163"
     inkscape:cy="7.5959797"
     inkscape:window-x="0"
     inkscape:window-y="27"
     inkscape:window-width="2560"
     inkscape:window-height="1376"
     inkscape:window-maximized="1"
     inkscape:current-layer="layercompo"
     inkscape:snap-global="false">
    <inkscape:grid
       type="xygrid"
       id="grid" />
  </sodipodi:namedview>
  <metadata
     id="metadata1906">
    <rdf:RDF>
      <cc:Work
         rdf:about="">
        <dc:format>image/svg+xml</dc:format>
        <dc:type
           rdf:resource="http://purl.org/dc/dcmitype/StillImage" />
        <cc:license
           rdf:resource="http://creativecommons.org/publicdomain/zero/1.0/" />
        <dc:title></dc:title>
        <dc:date>13 Jan 2019</dc:date>
        <dc:creator>
          <cc:Agent>
            <dc:title>Ramón Miranda</dc:title>
          </cc:Agent>
        </dc:creator>
        <dc:rights>
          <cc:Agent>
            <dc:title>see the license tab</dc:title>
          </cc:Agent>
        </dc:rights>
        <dc:subject>
          <rdf:Bag>
            <rdf:li>icon ui</rdf:li>
          </rdf:Bag>
        </dc:subject>
        <dc:description>This is a contribution with Inkscape Project from
Ramon Miranda www.ramonmiranda.com (design and SVG file)
Jabiertxo (SVG stuff to integrate them in UI)</dc:description>
        <dc:publisher>
          <cc:Agent>
            <dc:title />
          </cc:Agent>
        </dc:publisher>
        <dc:identifier />
        <dc:source />
        <dc:relation />
        <dc:language>-</dc:language>
        <dc:coverage />
        <dc:contributor>
          <cc:Agent>
            <dc:title>Ramon Miranda
Jabier Arraiza</dc:title>
          </cc:Agent>
        </dc:contributor>
      </cc:Work>
      <cc:License
         rdf:about="http://creativecommons.org/publicdomain/zero/1.0/">
        <cc:permits
           rdf:resource="http://creativecommons.org/ns#Reproduction" />
        <cc:permits
           rdf:resource="http://creativecommons.org/ns#Distribution" />
        <cc:permits
           rdf:resource="http://creativecommons.org/ns#DerivativeWorks" />
      </cc:License>
    </rdf:RDF>
  </metadata>
  <g
     inkscape:groupmode="layer"
     id="layercompo"
     inkscape:label="embrodery-stitch">
    <path
       id="rect22048"
       d="M 0,0 H 16 V 16 H 0 Z"
       style="opacity:0;fill:none" />
    <path
       id="path1470"
       style="opacity:1;stroke-width:0.850564"
       d="M 7.8456709,2.5326442 8.0782469,11.083135 9.0633724,11.573206 7.92375,2.6838186 Z M 7.4386629,3.1041166 7.3024397,3.3964979 6.6960809,11.734348 7.6579488,11.199423 Z M 8.4935612,3.7736033 9.5218794,11.802459 10.649873,12.363964 8.8224901,4.4032198 Z M 6.7974175,4.4796376 6.4103446,5.3102662 5.1594179,12.586573 6.2525252,11.980214 Z m 2.777622,1.3057482 1.5665655,6.8227832 0.25085,0.124594 -0.732615,-3.7561021 0.269124,-0.2741074 -0.9519005,-2.86733 z m 0.8704985,0.1063205 0.819,2.4686282 0.445217,-0.4551844 -0.853887,-1.9619449 z m -4.5667957,0.01329 -0.3887341,0.064789 -0.7375983,2.731107 0.3419138,0.2522938 -0.6509076,4.0968779 0.2425435,-0.199351 z m 5.4671967,0.098014 0.6861,1.5748717 0.35717,-0.3638153 -0.626294,-1.1612188 z m -6.3160992,0.044854 -0.3903953,0.06645 -0.6794543,1.847318 0.4402332,0.4119918 z m 7.2513872,0.068111 0.420298,0.7791297 0.282414,-0.2890588 -0.280752,-0.4385719 z m -8.128531,0.079741 -0.3903954,0.064789 -0.4917321,1.0598821 0.348864,0.3256064 z m 9.100367,0.03987 0.03655,0.058144 0.04818,-0.048176 z M 3.2539559,6.3468907 2.866883,6.4116798 2.6708546,6.7605438 2.9433008,7.0147162 Z"
       inkscape:connector-curvature="0"
       sodipodi:nodetypes="cccccccccccccccccccccccccccccccccccccccccccccccccccccccccccccccccccc" />
    <path
       inkscape:connector-curvature="0"
       style="stroke-width:0.586413"
       class="error"
       id="path3075"
       d="M 7.6826834,0.49599697 5.5073218,5.1073736 0.47565397,5.9298679 4.189998,9.4238734 3.4175478,14.463778 7.8874282,12.011776 12.441619,14.303806 12.330484,13.719723 11.490235,9.2937741 15.078541,5.6705263 10.019926,5.0273174 Z M 7.7061994,1.8213365 9.6401723,5.5702774 13.825456,6.1028896 10.857142,9.1005212 11.64436,13.245657 7.8750319,11.348608 4.177055,13.377858 4.8166106,9.20826 1.7442519,6.3172307 5.9070882,5.6363082 Z" />
  </g>
</svg>
