<?xml version="1.0" encoding="UTF-8" standalone="no"?>
<svg
   xmlns:dc="http://purl.org/dc/elements/1.1/"
   xmlns:cc="http://creativecommons.org/ns#"
   xmlns:rdf="http://www.w3.org/1999/02/22-rdf-syntax-ns#"
   xmlns:svg="http://www.w3.org/2000/svg"
   xmlns="http://www.w3.org/2000/svg"
   xmlns:sodipodi="http://sodipodi.sourceforge.net/DTD/sodipodi-0.dtd"
   xmlns:inkscape="http://www.inkscape.org/namespaces/inkscape"
   version="1.1"
   id="svg1"
   width="16"
   height="16"
   viewBox="0 0 16 16"
   sodipodi:docname="frmt-text-direction-vertical-symbolic.svg"
   inkscape:version="1.1-dev (6039630, 2019-12-20)">
  <style
     id="s0">.base { fill:#000000; }
.success { fill:#009909; }
.warning { fill:#FF1990; }
.error { fill:#00AAFF; }
.dark {  }
</style>
  <style
     id="s2">
@import '../../highlights.css';
</style>
  <metadata
     id="metadata915">
    <rdf:RDF>
      <cc:Work
         rdf:about="">
        <dc:format>image/svg+xml</dc:format>
        <dc:type
           rdf:resource="http://purl.org/dc/dcmitype/StillImage" />
        <dc:title />
      </cc:Work>
    </rdf:RDF>
  </metadata>
  <defs
     id="defs913" />
  <sodipodi:namedview
     objecttolerance="10"
     gridtolerance="10"
     guidetolerance="10"
     id="namedview"
     showgrid="true"
     inkscape:zoom="34.236274"
     inkscape:cx="5.2283738"
     inkscape:cy="5.8041105"
     inkscape:window-width="1296"
     inkscape:window-height="890"
     inkscape:window-x="65"
     inkscape:window-y="-6"
     inkscape:window-maximized="1"
     inkscape:current-layer="svg1"
     inkscape:snap-global="true">
    <inkscape:grid
       type="xygrid"
       id="grid" />
  </sodipodi:namedview>
  <g
     transform="matrix(0.999375,0,0,1,-558.65084,-805.36218)"
     inkscape:label="00188"
     id="frmt-text-direction-vertical">
    <path
       inkscape:connector-curvature="0"
       id="rect15925"
       d="m 559,805.36218 h 16 v 16 h -16 z"
       style="opacity:0;fill:none" />
  </g>
  <path
     class="success"
     style="opacity:1;stroke-width:0.581489"
     d="M 3,1.0380782 H 2 V 13 H 1 L 2.581424,15 4,13 H 3 Z"
     id="path4146"
     inkscape:connector-curvature="0"
     sodipodi:nodetypes="cccccccc" />
  <path
     sodipodi:nodetypes="cccccccc"
     inkscape:connector-curvature="0"
     id="path996"
     d="M 8,1.0380782 H 7 V 13 H 6 L 7.581424,15 9,13 H 8 Z"
     style="opacity:1;stroke-width:0.581489"
     class="success" />
  <path
     sodipodi:nodetypes="ccccccccccccc"
     style="fill:#000000;stroke-width:0.437501"
     inkscape:connector-curvature="0"
     id="path1713"
     d="M 13.413488,5.1780236 H 11.31269 L 11.000463,6 H 9.6368273 L 11.771712,1 h 1.19086 l 2.128801,5 H 13.727736 Z M 12.381144,2.4011927 11.768862,4.1818182 h 1.188452 z"
     class="base" />
  <path
     class="success"
     style="opacity:1;stroke-width:0.581489"
     d="M 13,7.9865619 H 12 V 13 H 11 L 12.581424,15 14,13 h -1 z"
     id="path4148"
     inkscape:connector-curvature="0"
     sodipodi:nodetypes="cccccccc" />
</svg>
