<?xml version="1.0" encoding="UTF-8" standalone="no"?>
<svg
   xmlns:dc="http://purl.org/dc/elements/1.1/"
   xmlns:cc="http://creativecommons.org/ns#"
   xmlns:rdf="http://www.w3.org/1999/02/22-rdf-syntax-ns#"
   xmlns:svg="http://www.w3.org/2000/svg"
   xmlns="http://www.w3.org/2000/svg"
   xmlns:sodipodi="http://sodipodi.sourceforge.net/DTD/sodipodi-0.dtd"
   xmlns:inkscape="http://www.inkscape.org/namespaces/inkscape"
   version="1.1"
   id="svg1"
   width="16"
   height="16"
   viewBox="0 0 16 16"
   sodipodi:docname="join-type-symbolic.svg"
   inkscape:version="1.1-dev (1fceb22, 2019-12-30)">
  <defs
     id="defs5222">
    <inkscape:path-effect
       update_on_knot_move="true"
       attempt_force_join="true"
       miter_limit="4"
       offset="0.072197687"
       unit="mm"
       linejoin_type="miter"
       lpeversion="1"
       is_visible="true"
       id="path-effect1554"
       effect="offset" />
  </defs>
  <style
     id="s0">.base { fill:#000000; }
.success { fill:#009909; }
.warning { fill:#FF1990; }
.error { fill:#00AAFF; }
.dark {  }
</style>
  <style
     id="s2">
@import '../../highlights.css';
</style>
  <sodipodi:namedview
     objecttolerance="10"
     gridtolerance="10"
     guidetolerance="10"
     id="namedview"
     showgrid="true"
     inkscape:zoom="76.83758"
     inkscape:cx="7.663697"
     inkscape:cy="8.2937834"
     inkscape:window-x="54"
     inkscape:window-y="-8"
     inkscape:window-width="1858"
     inkscape:window-height="1177"
     inkscape:window-maximized="1"
     inkscape:current-layer="layercompo">
    <inkscape:grid
       type="xygrid"
       id="grid" />
  </sodipodi:namedview>
  <metadata
     id="metadata1906">
    <rdf:RDF>
      <cc:Work
         rdf:about="">
        <dc:format>image/svg+xml</dc:format>
        <dc:type
           rdf:resource="http://purl.org/dc/dcmitype/StillImage" />
        <cc:license
           rdf:resource="http://creativecommons.org/publicdomain/zero/1.0/" />
        <dc:title />
        <dc:date>13 Jan 2019</dc:date>
        <dc:creator>
          <cc:Agent>
            <dc:title>Ramón Miranda</dc:title>
          </cc:Agent>
        </dc:creator>
        <dc:rights>
          <cc:Agent>
            <dc:title>see the license tab</dc:title>
          </cc:Agent>
        </dc:rights>
        <dc:subject>
          <rdf:Bag>
            <rdf:li>icon ui</rdf:li>
          </rdf:Bag>
        </dc:subject>
        <dc:description>This is a contribution with Inkscape Project from
Ramon Miranda www.ramonmiranda.com (design and SVG file)
Jabiertxo (SVG stuff to integrate them in UI)</dc:description>
        <dc:publisher>
          <cc:Agent>
            <dc:title />
          </cc:Agent>
        </dc:publisher>
        <dc:identifier />
        <dc:source />
        <dc:relation />
        <dc:language>-</dc:language>
        <dc:coverage />
        <dc:contributor>
          <cc:Agent>
            <dc:title>Ramon Miranda
Jabier Arraiza</dc:title>
          </cc:Agent>
        </dc:contributor>
      </cc:Work>
      <cc:License
         rdf:about="http://creativecommons.org/publicdomain/zero/1.0/">
        <cc:permits
           rdf:resource="http://creativecommons.org/ns#Reproduction" />
        <cc:permits
           rdf:resource="http://creativecommons.org/ns#Distribution" />
        <cc:permits
           rdf:resource="http://creativecommons.org/ns#DerivativeWorks" />
      </cc:License>
    </rdf:RDF>
  </metadata>
  <g
     inkscape:groupmode="layer"
     id="layercompo"
     inkscape:label="join-type">
    <path
       id="rect22048"
       d="M 0,0 H 16 V 16 H 0 Z"
       style="opacity:0;fill:none" />
    <path
       style="opacity:1;"
       d="M 9.175287,1.837014 C 6.514073,1.888335 4.400511,3.098298 3.131466,4.920944 1.439406,7.351138 1.12597,10.68445 2.131865,13.70576 A 1.081745,1.081745 0 1 0 4.184574,13.02234 C 3.376752,10.59596 3.688376,7.909003 4.906914,6.158894 5.920974,4.702466 7.478353,3.768908 9.892764,3.99917 8.823622,6.054279 9.052665,8.228246 9.647118,9.84842 c 0.370342,1.00937 0.862462,1.84581 1.264702,2.43942 0.20111,0.2968 0.37884,0.5324 0.51074,0.69802 0.13191,0.16561 0.0639,0.0887 0.23105,0.27483 A 1.081721,1.081721 0 1 0 13.26368,11.816 C 13.14662,11.68575 13.21723,11.76632 13.11532,11.63846 13.01358,11.51064 12.86723,11.31827 12.70186,11.07421 12.37111,10.5861 11.9663,9.890152 11.67793,9.104191 11.10118,7.532268 10.91137,5.763474 12.53648,3.962688 a 6.661221,6.661221 0 0 1 1.3182,-1.12364 12.1103,12.1103 0 0 0 -1.84597,-0.646944 C 11.01078,1.930967 10.06235,1.819907 9.175287,1.837014 Z"
       id="path9609" />
    <path
       inkscape:connector-curvature="0"
       inkscape:original-d="m 9.189877,2.792838 c 0.789787,-0.0087 1.647033,0.09877 2.570753,0.340497 a 12.03717,12.03717 0 0 1 0.17511,0.04621 7.158467,7.158467 0 0 0 -0.12154,0.131333 c -1.882996,2.086491 -1.70127,4.355955 -1.05074,6.128945 0.32526,0.886497 0.77045,1.643607 1.13336,2.179187 0.18146,0.26779 0.34189,0.48022 0.45724,0.62505 0.11531,0.14483 0.0453,0.0659 0.18485,0.22133 a 0.1084668,0.1084668 0 1 1 -0.16053,0.14591 c -0.1446,-0.16102 -0.0738,-0.0824 -0.19213,-0.23104 -0.11836,-0.14861 -0.28436,-0.36659 -0.4694,-0.63964 -0.37007,-0.54614 -0.8218,-1.31656 -1.15526,-2.2254 C 9.908484,7.735174 9.722086,5.41321 11.53687,3.298719 4.402985,1.545078 1.480588,7.985459 3.260369,13.33122 A 0.1081729,0.1081729 0 1 1 3.05607,13.39932 C 1.451738,8.580533 3.66142,2.853472 9.18988,2.792838 Z"
       inkscape:path-effect="#path-effect1554"
       style="opacity:1"
       d="M 9.1855469,2.5195312 C 3.4549394,2.5823822 1.1537345,8.4976004 2.7929688,13.460938 2.92064,13.998694 3.7350467,13.728268 3.5097656,13.220703 l 0.00977,0.02539 C 1.8390456,8.198577 4.4744857,2.1651701 11.082031,3.5175781 9.5178195,5.624553 9.6675591,7.8675529 10.306641,9.609375 c 0.343052,0.934984 0.805024,1.72452 1.183593,2.283203 0.189113,0.27906 0.360144,0.504673 0.482422,0.658203 0.115284,0.144814 0.05871,0.08333 0.203125,0.244141 0.340459,0.377218 0.907745,-0.138837 0.566407,-0.511719 -0.140523,-0.156513 -0.0574,-0.0603 -0.175782,-0.208984 -0.111208,-0.139631 -0.266027,-0.345724 -0.443359,-0.607422 -0.354498,-0.523166 -0.787989,-1.261126 -1.103516,-2.1210939 -0.625182,-1.7039069 -0.795215,-3.8645024 0.998047,-5.8515625 0.03845,-0.042601 0.07576,-0.085354 0.115234,-0.1269531 L 12.447266,3.0371094 12.007812,2.9160156 C 11.949584,2.9001802 11.887208,2.8842533 11.828125,2.8691406 10.88343,2.6219248 10.002146,2.5105358 9.1855469,2.5195312 Z M 2.7929688,13.460938 c -3.027e-4,-0.0013 -0.00166,-6.7e-4 -0.00195,-0.002 l 0.00586,0.02539 c -0.00256,-0.0077 -0.00136,-0.01574 -0.00391,-0.02344 z"
       id="path5226"
       class="error" />
  </g>
</svg>
