<?xml version="1.0" encoding="UTF-8" standalone="no"?>
<svg
   xmlns:dc="http://purl.org/dc/elements/1.1/"
   xmlns:cc="http://creativecommons.org/ns#"
   xmlns:rdf="http://www.w3.org/1999/02/22-rdf-syntax-ns#"
   xmlns:svg="http://www.w3.org/2000/svg"
   xmlns="http://www.w3.org/2000/svg"
   xmlns:sodipodi="http://sodipodi.sourceforge.net/DTD/sodipodi-0.dtd"
   xmlns:inkscape="http://www.inkscape.org/namespaces/inkscape"
   inkscape:version="1.0beta0 (1d85f8e, 2019-09-11)"
   sodipodi:docname="node-add-symbolic.svg"
   viewBox="0 0 16 16"
   height="16"
   width="16"
   id="svg1"
   version="1.1">
<style id="s0">
   .base    { fill: #000000; }
   .success { fill: #009909; }
   .warning { fill: #FF1990; }
   .error   { fill: #00AAFF; }
   .dark    {  }
  </style>
  <style id="s2"> 
     @import '../../highlights.css'; 
  </style>
   
  <metadata
     id="metadata3749">
    <rdf:RDF>
      <cc:Work
         rdf:about="">
        <dc:format>image/svg+xml</dc:format>
        <dc:type
           rdf:resource="http://purl.org/dc/dcmitype/StillImage" />
      </cc:Work>
    </rdf:RDF>
  </metadata>
  <defs
     id="defs3747" />
  <sodipodi:namedview
     inkscape:current-layer="node-add"
     inkscape:window-maximized="1"
     inkscape:window-y="-8"
     inkscape:window-x="54"
     inkscape:window-height="1177"
     inkscape:window-width="1858"
     inkscape:cy="3.1243683"
     inkscape:cx="3.4888904"
     inkscape:zoom="27.166187"
     showgrid="true"
     id="namedview"
     guidetolerance="10"
     gridtolerance="10"
     objecttolerance="10">
    <inkscape:grid
       id="grid"
       type="xygrid" />
  </sodipodi:namedview>
  <g
     id="node-add"
     inkscape:label="00162"
     transform="matrix(0.999988,0,0,1,-377.99539,-558.36218)">
    <path
       style="opacity:0;fill:none"
       d="m 378,558.36218 h 16 v 16 h -16 z"
       id="rect10573"
       inkscape:connector-curvature="0" />
    <path
       style="opacity:1"
       d="m 378.4579,571.3622 a 0.5033269,0.5021925 0 1 0 0.0939,1 h 14.9399 a 0.5011798,0.5000502 0 1 0 0,-1 h -14.9399 a 0.5011798,0.5000502 0 0 0 -0.0939,0 z"
       id="path10583"
       inkscape:connector-curvature="0" />
    <path
       class="success"
       style="opacity:1"
       d="m 383,569.36218 h 6 v 5 h -6 z"
       id="rect10585"
       inkscape:connector-curvature="0" />
    <path
       inkscape:connector-curvature="0"
       id="path10587"
       d="m 385,558.3622 h 2 v 3 h 3 v 2 h -3 v 3 h -2 v -3 h -3 v -2 h 3 z"
       style="opacity:1" />
  </g>
</svg>
