<?xml version="1.0" encoding="UTF-8" standalone="no"?>
<svg
   xmlns:dc="http://purl.org/dc/elements/1.1/"
   xmlns:cc="http://creativecommons.org/ns#"
   xmlns:rdf="http://www.w3.org/1999/02/22-rdf-syntax-ns#"
   xmlns:svg="http://www.w3.org/2000/svg"
   xmlns="http://www.w3.org/2000/svg"
   xmlns:sodipodi="http://sodipodi.sourceforge.net/DTD/sodipodi-0.dtd"
   xmlns:inkscape="http://www.inkscape.org/namespaces/inkscape"
   inkscape:version="1.1-dev (6039630, 2019-12-20)"
   sodipodi:docname="object-to-path-symbolic.svg"
   viewBox="0 0 16 16"
   height="16"
   width="16"
   id="svg1"
   version="1.1">
  <metadata
     id="metadata4745">
    <rdf:RDF>
      <cc:Work
         rdf:about="">
        <dc:format>image/svg+xml</dc:format>
        <dc:type
           rdf:resource="http://purl.org/dc/dcmitype/StillImage" />
      </cc:Work>
    </rdf:RDF>
  </metadata>
  <defs
     id="defs4743" />
  <style
     id="s0">.base { fill:#000000; }
.success { fill:#009909; }
.warning { fill:#FF1990; }
.error { fill:#00AAFF; }
.dark {  }
</style>
  <style
     id="s2">
@import '../../highlights.css';
</style>
  <sodipodi:namedview
     inkscape:current-layer="svg1"
     inkscape:window-maximized="1"
     inkscape:window-y="-6"
     inkscape:window-x="65"
     inkscape:window-height="890"
     inkscape:window-width="1296"
     inkscape:cy="8"
     inkscape:cx="8"
     inkscape:zoom="41.125"
     showgrid="true"
     id="namedview"
     guidetolerance="10"
     gridtolerance="10"
     objecttolerance="10">
    <inkscape:grid
       id="grid"
       type="xygrid" />
  </sodipodi:namedview>
  <g
     id="object-to-path"
     inkscape:label="00073"
     transform="translate(-165,-527.36218)">
    <path
       style="opacity:0;fill:none"
       d="m 165,527.36218 h 16 v 16 h -16 z"
       id="rect22765"
       inkscape:connector-curvature="0" />
    <path
       class="success"
       inkscape:connector-curvature="0"
       id="rect22767"
       d="m 167,529.3622 v 12 h 12 v -12 z m 1,1 h 10 v 10 h -10 z"
       style="opacity:1" />
    <path
       class="success"
       style="opacity:1"
       d="m 166,528.36218 h 3 v 3 h -3 z"
       id="rect22772"
       inkscape:connector-curvature="0" />
    <path
       class="success"
       style="opacity:1"
       d="m 177,528.36218 h 3 v 3 h -3 z"
       id="rect22776"
       inkscape:connector-curvature="0" />
    <path
       class="success"
       style="opacity:1"
       d="m 166,539.36218 h 3 v 3 h -3 z"
       id="rect22778"
       inkscape:connector-curvature="0" />
    <path
       class="success"
       style="opacity:1"
       d="m 177,539.36218 h 3 v 3 h -3 z"
       id="rect22780"
       inkscape:connector-curvature="0" />
    <path
       transform="translate(0,512.3622)"
       style="opacity:1"
       d="m 170,20 h 6 v 6 h -6 z"
       id="rect22782"
       inkscape:connector-curvature="0" />
  </g>
</svg>
