<?xml version="1.0" encoding="UTF-8" standalone="no"?>
<svg
   xmlns:dc="http://purl.org/dc/elements/1.1/"
   xmlns:cc="http://creativecommons.org/ns#"
   xmlns:rdf="http://www.w3.org/1999/02/22-rdf-syntax-ns#"
   xmlns:svg="http://www.w3.org/2000/svg"
   xmlns="http://www.w3.org/2000/svg"
   xmlns:sodipodi="http://sodipodi.sourceforge.net/DTD/sodipodi-0.dtd"
   xmlns:inkscape="http://www.inkscape.org/namespaces/inkscape"
   inkscape:version="1.1-dev (1fceb22ce1, 2019-12-30, custom)"
   sodipodi:docname="pts2ellipse-symbolic.svg"
   viewBox="0 0 16 16"
   height="16"
   width="16"
   id="svg1"
   version="1.1">
  <style
     id="s0">.base { fill:#000000; }
.success { fill:#009909; }
.warning { fill:#FF1990; }
.error { fill:#00AAFF; }
.dark {  }
</style>
  <style
     id="s2">
@import '../../highlights.css';
</style>
  <defs
     id="defs913">
    <inkscape:path-effect
       effect="pts2ellipse"
       id="path-effect1415"
       is_visible="true"
       method="steiner_ellipse"
       gen_arc="false"
       arc_other="false"
       slice_arc="false"
       gen_isometric_frame="false"
       draw_axes="false"
       gen_perspective_frame="false"
       draw_perspective_axes="false"
       rot_axes="0"
       draw_ori_path="false" />
  </defs>
  <sodipodi:namedview
     inkscape:snap-global="false"
     inkscape:current-layer="svg1"
     inkscape:window-maximized="1"
     inkscape:window-height="1376"
     inkscape:window-width="2560"
     inkscape:window-y="27"
     inkscape:window-x="0"
     inkscape:cy="10.3418"
     inkscape:cx="12.420884"
     inkscape:zoom="38.41879"
     showgrid="true"
     id="namedview"
     guidetolerance="10"
     gridtolerance="10"
     objecttolerance="10">
    <inkscape:grid
       id="grid"
       type="xygrid" />
  </sodipodi:namedview>
  <metadata
     id="metadata1906">
    <rdf:RDF>
      <cc:Work
         rdf:about="">
        <dc:format>image/svg+xml</dc:format>
        <dc:type
           rdf:resource="http://purl.org/dc/dcmitype/StillImage" />
        <cc:license
           rdf:resource="http://creativecommons.org/publicdomain/zero/1.0/" />
        <dc:title></dc:title>
        <dc:date>13 Jan 2019</dc:date>
        <dc:creator>
          <cc:Agent>
            <dc:title>Ramón Miranda</dc:title>
          </cc:Agent>
        </dc:creator>
        <dc:rights>
          <cc:Agent>
            <dc:title>see the license tab</dc:title>
          </cc:Agent>
        </dc:rights>
        <dc:subject>
          <rdf:Bag>
            <rdf:li>icon ui</rdf:li>
          </rdf:Bag>
        </dc:subject>
        <dc:description>This is a contribution with Inkscape Project from
Ramon Miranda www.ramonmiranda.com (design and SVG file)
Jabiertxo (SVG stuff to integrate them in UI)</dc:description>
        <dc:publisher>
          <cc:Agent>
            <dc:title />
          </cc:Agent>
        </dc:publisher>
        <dc:identifier />
        <dc:source />
        <dc:relation />
        <dc:language>-</dc:language>
        <dc:coverage />
        <dc:contributor>
          <cc:Agent>
            <dc:title>Ramon Miranda
Jabier Arraiza</dc:title>
          </cc:Agent>
        </dc:contributor>
      </cc:Work>
      <cc:License
         rdf:about="http://creativecommons.org/publicdomain/zero/1.0/">
        <cc:permits
           rdf:resource="http://creativecommons.org/ns#Reproduction" />
        <cc:permits
           rdf:resource="http://creativecommons.org/ns#Distribution" />
        <cc:permits
           rdf:resource="http://creativecommons.org/ns#DerivativeWorks" />
      </cc:License>
    </rdf:RDF>
  </metadata>
  <g
     inkscape:label="ellipse-5pts"
     id="layercompo"
     inkscape:groupmode="layer">
    <path
       style="opacity:0;fill:none"
       d="M 0,0 H 16 V 16 H 0 Z"
       id="rect22048" />
    <path
       id="path1441"
       style="opacity:1"
       d="M 4.0566406 2.3808594 C 3.2242239 2.4243811 2.5173154 2.7034034 2.0546875 3.2851562 C 1.3274199 4.1996924 1.4721129 5.5348008 2.1171875 6.8964844 A 1.5 1.5 0 0 0 1.7050781 7.9296875 A 1.5 1.5 0 0 0 3.2050781 9.4296875 A 1.5 1.5 0 0 0 3.7695312 9.3183594 C 4.3166912 9.9381245 4.9384067 10.547889 5.6542969 11.117188 C 6.5975277 11.867274 7.5696103 12.451393 8.5175781 12.892578 A 1.5 1.5 0 0 0 8.5097656 13.042969 A 1.5 1.5 0 0 0 10.009766 14.542969 A 1.5 1.5 0 0 0 11.34375 13.728516 C 12.494661 13.84026 13.502182 13.610135 14.097656 12.861328 C 14.837862 11.930524 14.68261 10.564515 14.007812 9.1777344 C 13.483013 8.0992157 12.620398 6.968799 11.505859 5.9140625 A 1.5 1.5 0 0 0 11.632812 5.3105469 A 1.5 1.5 0 0 0 10.132812 3.8105469 A 1.5 1.5 0 0 0 9.2207031 4.1210938 C 8.0025635 3.3385975 6.7766443 2.7984553 5.6640625 2.5429688 C 5.1003922 2.4135309 4.5560907 2.3547463 4.0566406 2.3808594 z M 4.5429688 3.1835938 C 4.8332176 3.200046 5.1471868 3.2467889 5.484375 3.3242188 C 6.4676176 3.5500047 7.6001382 4.0427943 8.7363281 4.7636719 A 1.5 1.5 0 0 0 8.6328125 5.3105469 A 1.5 1.5 0 0 0 10.132812 6.8105469 A 1.5 1.5 0 0 0 10.998047 6.5351562 C 12.032365 7.5241223 12.822307 8.5721261 13.287109 9.5273438 C 13.892607 10.771705 13.929573 11.788207 13.470703 12.365234 C 13.113959 12.813838 12.425776 13.020959 11.505859 12.949219 A 1.5 1.5 0 0 0 10.009766 11.542969 A 1.5 1.5 0 0 0 8.8085938 12.144531 C 7.9383109 11.733752 7.0339181 11.189737 6.1542969 10.490234 C 5.4895555 9.9616114 4.9132036 9.3977331 4.40625 8.828125 A 1.5 1.5 0 0 0 4.7050781 7.9296875 A 1.5 1.5 0 0 0 3.2050781 6.4296875 A 1.5 1.5 0 0 0 2.8105469 6.484375 C 2.2695391 5.3043887 2.2382484 4.3383111 2.6796875 3.7832031 C 3.0238398 3.350433 3.6722222 3.1342369 4.5429688 3.1835938 z " />
  </g>
  <path
     id="path853"
     d="M 11.026029,5.3438264 A 0.86685044,0.86685044 0 0 1 10.159178,6.2106768 0.86685044,0.86685044 0 0 1 9.2923276,5.3438264 0.86685044,0.86685044 0 0 1 10.159178,4.476976 0.86685044,0.86685044 0 0 1 11.026029,5.3438264 Z"
     class="error"
     inkscape:connector-curvature="0" />
  <path
     id="path855"
     d="M 4.0763046,7.9206905 A 0.86685044,0.86685044 0 0 1 3.2094536,8.7875409 0.86685044,0.86685044 0 0 1 2.3426033,7.9206905 0.86685044,0.86685044 0 0 1 3.2094536,7.0538401 0.86685044,0.86685044 0 0 1 4.0763046,7.9206905 Z"
     class="error"
     inkscape:connector-curvature="0" />
  <path
     inkscape:connector-curvature="0"
     class="error"
     d="m 10.895884,13.100448 a 0.86685044,0.86685044 0 0 1 -0.866851,0.86685 0.86685044,0.86685044 0 0 1 -0.86685,-0.86685 0.86685044,0.86685044 0 0 1 0.86685,-0.866851 0.86685044,0.86685044 0 0 1 0.866851,0.866851 z"
     id="path850" />
</svg>
