<?xml version="1.0" encoding="UTF-8" standalone="no"?>
<svg
   xmlns:dc="http://purl.org/dc/elements/1.1/"
   xmlns:cc="http://creativecommons.org/ns#"
   xmlns:rdf="http://www.w3.org/1999/02/22-rdf-syntax-ns#"
   xmlns:svg="http://www.w3.org/2000/svg"
   xmlns="http://www.w3.org/2000/svg"
   xmlns:sodipodi="http://sodipodi.sourceforge.net/DTD/sodipodi-0.dtd"
   xmlns:inkscape="http://www.inkscape.org/namespaces/inkscape"
   inkscape:version="1.1-dev (6039630, 2019-12-20)"
   sodipodi:docname="selection-bottom-symbolic.svg"
   viewBox="0 0 16 16"
   height="16"
   width="16"
   id="svg1"
   version="1.1">
  <metadata
     id="metadata7269">
    <rdf:RDF>
      <cc:Work
         rdf:about="">
        <dc:format>image/svg+xml</dc:format>
        <dc:type
           rdf:resource="http://purl.org/dc/dcmitype/StillImage" />
      </cc:Work>
    </rdf:RDF>
  </metadata>
  <defs
     id="defs7267" />
  <style
     id="s0">.base { fill:#000000; }
.success { fill:#009909; }
.warning { fill:#FF1990; }
.error { fill:#00AAFF; }
.dark {  }
</style>
  <style
     id="s2">
@import '../../highlights.css';
</style>
  <sodipodi:namedview
     inkscape:current-layer="svg1"
     inkscape:window-maximized="1"
     inkscape:window-y="-6"
     inkscape:window-x="65"
     inkscape:window-height="890"
     inkscape:window-width="1296"
     inkscape:cy="2.6219759"
     inkscape:cx="20.567327"
     inkscape:zoom="19.209395"
     showgrid="true"
     id="namedview"
     guidetolerance="10"
     gridtolerance="10"
     objecttolerance="10">
    <inkscape:grid
       id="grid"
       type="xygrid" />
  </sodipodi:namedview>
  <g
     id="selection-bottom"
     inkscape:label="00063"
     transform="translate(-135,-687.36218)">
    <path
       transform="scale(1,-1)"
       style="opacity:0;fill:none"
       d="m 135,-703.36218 h 16 v 16 h -16 z"
       id="rect12189"
       inkscape:connector-curvature="0" />
    <path
       transform="scale(1,-1)"
       style="opacity:0.5"
       d="m 136,-698.36218 h 5 v 2 h -5 z"
       id="rect12191"
       inkscape:connector-curvature="0" />
    <path
       transform="scale(1,-1)"
       style="opacity:1"
       d="m 136,-702.36218 h 13 v 2 h -13 z"
       id="rect12193"
       inkscape:connector-curvature="0" />
    <path
       transform="scale(1,-1)"
       style="opacity:0.5"
       d="m 136,-694.36218 h 5 v 2 h -5 z"
       id="rect12195"
       inkscape:connector-curvature="0" />
    <path
       transform="scale(1,-1)"
       style="opacity:0.5"
       d="m 136,-690.36218 h 5 v 2 h -5 z"
       id="rect12197"
       inkscape:connector-curvature="0" />
    <path
       class="success"
       style="opacity:1"
       d="m 145,688.3622 h 2 v 7 h 2 l -3,2.9883 -3,-2.9883 h 2 z"
       id="path12199"
       inkscape:connector-curvature="0" />
  </g>
</svg>
