<?xml version="1.0" encoding="UTF-8" standalone="no"?>
<svg
   xmlns:dc="http://purl.org/dc/elements/1.1/"
   xmlns:cc="http://creativecommons.org/ns#"
   xmlns:rdf="http://www.w3.org/1999/02/22-rdf-syntax-ns#"
   xmlns:svg="http://www.w3.org/2000/svg"
   xmlns="http://www.w3.org/2000/svg"
   xmlns:sodipodi="http://sodipodi.sourceforge.net/DTD/sodipodi-0.dtd"
   xmlns:inkscape="http://www.inkscape.org/namespaces/inkscape"
   version="1.1"
   id="svg1"
   width="16"
   height="16"
   viewBox="0 0 16 16"
   sodipodi:docname="skeletal-symbolic.svg"
   inkscape:version="1.1-dev (1fceb22ce1, 2019-12-30, custom)">
  <defs
     id="defs1947" />
  <style
     id="s0">.base { fill:#000000; }
.success { fill:#009909; }
.warning { fill:#FF1990; }
.error { fill:#00AAFF; }
.dark {  }
</style>
  <style
     id="s2">
@import '../../highlights.css';
</style>
  <sodipodi:namedview
     objecttolerance="10"
     gridtolerance="10"
     guidetolerance="10"
     id="namedview"
     showgrid="true"
     inkscape:zoom="27.166187"
     inkscape:cx="5.9561449"
     inkscape:cy="8.9538646"
     inkscape:window-x="0"
     inkscape:window-y="27"
     inkscape:window-width="2560"
     inkscape:window-height="1376"
     inkscape:window-maximized="1"
     inkscape:current-layer="svg1">
    <inkscape:grid
       type="xygrid"
       id="grid" />
  </sodipodi:namedview>
  <metadata
     id="metadata1906">
    <rdf:RDF>
      <cc:Work
         rdf:about="">
        <dc:format>image/svg+xml</dc:format>
        <dc:type
           rdf:resource="http://purl.org/dc/dcmitype/StillImage" />
        <cc:license
           rdf:resource="http://creativecommons.org/publicdomain/zero/1.0/" />
        <dc:title />
        <dc:date>13 Jan 2019</dc:date>
        <dc:creator>
          <cc:Agent>
            <dc:title>Ramón Miranda</dc:title>
          </cc:Agent>
        </dc:creator>
        <dc:rights>
          <cc:Agent>
            <dc:title>see the license tab</dc:title>
          </cc:Agent>
        </dc:rights>
        <dc:subject>
          <rdf:Bag>
            <rdf:li>icon ui</rdf:li>
          </rdf:Bag>
        </dc:subject>
        <dc:description>This is a contribution with Inkscape Project from
Ramon Miranda www.ramonmiranda.com (design and SVG file)
Jabiertxo (SVG stuff to integrate them in UI)</dc:description>
        <dc:publisher>
          <cc:Agent>
            <dc:title />
          </cc:Agent>
        </dc:publisher>
        <dc:identifier />
        <dc:source />
        <dc:relation />
        <dc:language>-</dc:language>
        <dc:coverage />
        <dc:contributor>
          <cc:Agent>
            <dc:title>Ramon Miranda
Jabier Arraiza</dc:title>
          </cc:Agent>
        </dc:contributor>
      </cc:Work>
      <cc:License
         rdf:about="http://creativecommons.org/publicdomain/zero/1.0/">
        <cc:permits
           rdf:resource="http://creativecommons.org/ns#Reproduction" />
        <cc:permits
           rdf:resource="http://creativecommons.org/ns#Distribution" />
        <cc:permits
           rdf:resource="http://creativecommons.org/ns#DerivativeWorks" />
      </cc:License>
    </rdf:RDF>
  </metadata>
  <g
     inkscape:groupmode="layer"
     id="layercompo"
     inkscape:label="skeletal">
    <path
       id="path9619"
       d="m 1.694048,5.276096 -0.0098,0.464844 c 1.50433,0.03418 2.429447,0.468426 3.158203,1.105469 0.728757,0.637045 1.255769,1.496393 1.888672,2.378906 1.207829,1.684175 2.878193,3.390565 7.050783,3.544915 l -0.1914,-0.19336 0.26757,-0.26953 C 9.761441,12.1798 8.298729,10.61129 7.110063,8.953831 6.490247,8.089568 5.949236,7.196217 5.149126,6.4968 4.349016,5.797384 3.285903,5.312263 1.694048,5.276096 Z M 13.91866,9.737034 v 2.511716 l 0.24023,-0.24219 0.22657,0.22656 V 9.737034 Z"
       class="error"
       style="" />
    <path
       id="rect22048"
       d="M 0,0 H 16 V 16 H 0 Z"
       style="opacity:0;fill:none" />
    <path
       id="path9609"
       d="M 10.83272,1.998753 V 2.160862 2.59055 C 10.1367,2.788416 9.598946,3.326171 9.401079,4.02219 H 8.809282 V 4.1843 5.151096 H 9.401079 C 9.598456,5.847527 10.13621,6.387018 10.83272,6.58469 v 0.591797 h 1.12891 V 6.58469 c 0.69692,-0.197182 1.23641,-0.736671 1.43359,-1.433594 h 0.5918 V 4.02219 h -0.5918 C 13.19755,3.325678 12.65807,2.787926 11.96163,2.59055 V 1.998753 Z m 0.32422,0.324219 h 0.48242 V 2.80344 h -0.48242 z m -0.32422,0.746093 v 0.05859 h 1.12891 v -0.05859 c 0.44382,0.1628 0.79003,0.509254 0.95312,0.953125 h -0.0566 V 4.1843 5.151096 h 0.0586 c -0.16283,0.444641 -0.51043,0.792378 -0.95508,0.955079 v -0.05859 h -1.12891 v 0.05859 C 10.38896,5.943352 10.04453,5.594731 9.881548,5.151096 h 0.05859 V 4.02219 H 9.881548 C 10.04482,3.579028 10.38957,3.232054 10.83272,3.069065 Z M 9.133501,4.346409 H 9.615923 V 4.828831 H 9.133501 Z m 4.046879,0 h 0.48437 V 4.828831 H 13.18038 Z M 3.119829,4.660862 C 2.875698,4.670085 2.656757,4.702284 2.469438,4.7468 1.690104,4.932356 1.256274,5.344267 1.242876,5.80344 v 0.002 c -0.0059,0.258771 0.143836,0.463885 0.320312,0.640625 0.176565,0.176742 0.397866,0.340016 0.628907,0.513672 0.462082,0.347399 0.951564,0.734647 1.15625,1.183594 l 0.0098,0.02344 0.01563,0.01953 c 0.243294,0.321835 0.49224,1.036504 1.072266,1.960937 0.195517,0.34043 0.425546,0.67408 0.691406,0.99609 0.592016,0.71648 1.338913,1.33819 2.216797,1.79102 l 0.0059,0.004 0.0039,0.002 c 1.760708,0.79105 3.358691,0.74554 4.371101,0.49414 0.51769,-0.12861 0.91302,-0.3096 1.1914,-0.5254 0.27837,-0.21579 0.45117,-0.48039 0.45117,-0.76757 0,-0.29654 -0.1757,-0.54982 -0.42578,-0.76367 C 12.70171,11.16361 12.3627,10.97044 11.94796,10.77219 11.18633,10.40853 10.0294,9.983414 9.350298,9.438206 l -0.0078,-0.0078 -0.0078,-0.0059 C 9.025252,9.216347 8.723504,8.897018 8.397173,8.487034 8.253312,8.306502 8.10615,8.109436 7.955766,7.906956 7.471557,7.164733 6.845032,6.260903 5.832719,5.487034 l -0.0078,-0.0059 -0.0059,-0.0059 C 5.146688,5.033582 4.495788,4.807652 3.92061,4.713596 3.633065,4.666569 3.36396,4.651639 3.119829,4.660862 Z m 0.01563,0.466797 c 0.212651,-0.008 0.450559,0.0033 0.707031,0.04492 0.509947,0.08277 1.094491,0.28793 1.708984,0.689453 0.94347,0.722741 1.53634,1.567095 2.013672,2.298828 l 0.002,0.0059 0.0059,0.0078 c 0.154608,0.208207 0.308526,0.412055 0.460937,0.603516 0.336204,0.42215 0.659786,0.773281 1.03125,1.02539 0.783478,0.62639 1.964099,1.04764 2.681639,1.39062 0.39615,0.18935 0.70692,0.37194 0.90235,0.53906 0.19551,0.16714 0.26172,0.29688 0.26172,0.40821 0,0.0913 -0.0642,0.23773 -0.27149,0.39843 -0.20732,0.16069 -0.54622,0.32434 -1.01758,0.44141 C 10.71005,13.20763 9.219804,13.25706 7.565141,12.51633 6.74794,12.09389 6.049306,11.51706 5.496782,10.84836 5.246348,10.54503 5.029919,10.22747 4.846391,9.906956 l -0.002,-0.002 -0.002,-0.0059 C 4.299984,9.034442 4.090617,8.385684 3.766313,7.942112 3.490492,7.345602 2.934809,6.933602 2.473345,6.586643 2.241333,6.412283 2.031397,6.252205 1.893266,6.113987 1.75584,5.976384 1.708703,5.877142 1.709673,5.817112 1.713815,5.67422 1.913105,5.358418 2.578813,5.199925 2.735456,5.162681 2.922803,5.135637 3.135454,5.127659 Z m 8.021486,1.242187 h 0.48242 v 0.484376 h -0.48242 z m 2.97852,2.472657 c -0.3836,0 -0.70117,0.315621 -0.70118,0.699219 0,0.383596 0.31758,0.699218 0.70118,0.699218 0.38358,0 0.69922,-0.315623 0.69922,-0.699218 0,-0.383597 -0.31564,-0.69922 -0.69922,-0.699219 z m 0.0254,2.937497 -0.79688,0.79883 0.79688,0.79687 0.79687,-0.79687 -0.11328,-0.11524 z m -0.002,0.45508 0.34375,0.34375 -0.34179,0.34179 -0.34375,-0.34375 z"
       style="opacity:1;" />
  </g>
</svg>
